…
### Tokenisation

``` r
tokens <- texts %>%
  unnest_tokens(word, text, "words") %>%
  anti_join(stop_words) %>%
  mutate(word = tm::removeNumbers(word), 
         word = tm::removePunctuation(word)) 

head(tokens, 30)
```

    ## # A tibble: 30 x 2
    ## # Groups:   date [1]
    ##    date       word                        
    ##    <chr>      <chr>                       
    ##  1 2019/07/26 govuk                       
    ##  2 2019/07/26 blogs                       
    ##  3 2019/07/26 cookies                     
    ##  4 2019/07/26 site                        
    ##  5 2019/07/26 simpler                     
    ##  6 2019/07/26 cookies                     
    ##  7 2019/07/26 https                       
    ##  8 2019/07/26 publichealthmattersbloggovuk
    ##  9 2019/07/26 ""                          
    ## 10 2019/07/26 ""                          
    ## # … with 20 more rows
…
